108.02.06 19:47 B D:\ian\v2beta\admin\FCKeditor\editor\filemanager\browser\default\images\ButtonArrow.gif <-- Ipswitch /public_html/v2beta/admin/FCKeditor/editor/filemanager/browser/default/images ButtonArrow.gif
108.02.06 19:47 B D:\ian\v2beta\admin\FCKeditor\editor\filemanager\browser\default\images\Folder.gif <-- Ipswitch /public_html/v2beta/admin/FCKeditor/editor/filemanager/browser/default/images Folder.gif
108.02.06 19:47 B D:\ian\v2beta\admin\FCKeditor\editor\filemanager\browser\default\images\Folder32.gif <-- Ipswitch /public_html/v2beta/admin/FCKeditor/editor/filemanager/browser/default/images Folder32.gif
108.02.06 19:47 B D:\ian\v2beta\admin\FCKeditor\editor\filemanager\browser\default\images\FolderOpened.gif <-- Ipswitch /public_html/v2beta/admin/FCKeditor/editor/filemanager/browser/default/images FolderOpened.gif
108.02.06 19:47 B D:\ian\v2beta\admin\FCKeditor\editor\filemanager\browser\default\images\FolderOpened32.gif <-- Ipswitch /public_html/v2beta/admin/FCKeditor/editor/filemanager/browser/default/images FolderOpened32.gif
108.02.06 19:47 B D:\ian\v2beta\admin\FCKeditor\editor\filemanager\browser\default\images\FolderUp.gif <-- Ipswitch /public_html/v2beta/admin/FCKeditor/editor/filemanager/browser/default/images FolderUp.gif
108.02.06 19:47 B D:\ian\v2beta\admin\FCKeditor\editor\filemanager\browser\default\images\spacer.gif <-- Ipswitch /public_html/v2beta/admin/FCKeditor/editor/filemanager/browser/default/images spacer.gif
2009.01.19 20:57 B E:\Prima Daya mandiri -2\primadayamandiri\control\FCKeditor\editor\filemanager\browser\default\images\ButtonArrow.gif --> primadayamandiri.com /public_html/control/FCKeditor/editor/filemanager/browser/default/images ButtonArrow.gif
2009.01.19 20:57 B E:\Prima Daya mandiri -2\primadayamandiri\control\FCKeditor\editor\filemanager\browser\default\images\Folder.gif --> primadayamandiri.com /public_html/control/FCKeditor/editor/filemanager/browser/default/images Folder.gif
2009.01.19 20:57 B E:\Prima Daya mandiri -2\primadayamandiri\control\FCKeditor\editor\filemanager\browser\default\images\Folder32.gif --> primadayamandiri.com /public_html/control/FCKeditor/editor/filemanager/browser/default/images Folder32.gif
2009.01.19 20:57 B E:\Prima Daya mandiri -2\primadayamandiri\control\FCKeditor\editor\filemanager\browser\default\images\FolderOpened.gif --> primadayamandiri.com /public_html/control/FCKeditor/editor/filemanager/browser/default/images FolderOpened.gif
2009.01.19 20:57 B E:\Prima Daya mandiri -2\primadayamandiri\control\FCKeditor\editor\filemanager\browser\default\images\FolderOpened32.gif --> primadayamandiri.com /public_html/control/FCKeditor/editor/filemanager/browser/default/images FolderOpened32.gif
2009.01.19 20:57 B E:\Prima Daya mandiri -2\primadayamandiri\control\FCKeditor\editor\filemanager\browser\default\images\FolderUp.gif --> primadayamandiri.com /public_html/control/FCKeditor/editor/filemanager/browser/default/images FolderUp.gif
2009.01.19 20:57 B E:\Prima Daya mandiri -2\primadayamandiri\control\FCKeditor\editor\filemanager\browser\default\images\spacer.gif --> primadayamandiri.com /public_html/control/FCKeditor/editor/filemanager/browser/default/images spacer.gif
2009.01.19 20:57 B E:\Prima Daya mandiri -2\primadayamandiri\control\FCKeditor\editor\filemanager\browser\default\images\WS_FTP.LOG --> primadayamandiri.com /public_html/control/FCKeditor/editor/filemanager/browser/default/images WS_FTP.LOG
