108.02.06 19:44 B D:\ian\v2beta\admin\FCKeditor\editor\dialog\fck_about\index.php <-- Ipswitch /public_html/v2beta/admin/FCKeditor/editor/dialog/fck_about index.php
108.02.06 19:44 B D:\ian\v2beta\admin\FCKeditor\editor\dialog\fck_about\lgpl.html <-- Ipswitch /public_html/v2beta/admin/FCKeditor/editor/dialog/fck_about lgpl.html
108.02.06 19:44 B D:\ian\v2beta\admin\FCKeditor\editor\dialog\fck_about\logo_fckeditor.gif <-- Ipswitch /public_html/v2beta/admin/FCKeditor/editor/dialog/fck_about logo_fckeditor.gif
108.02.06 19:44 B D:\ian\v2beta\admin\FCKeditor\editor\dialog\fck_about\logo_fredck.gif <-- Ipswitch /public_html/v2beta/admin/FCKeditor/editor/dialog/fck_about logo_fredck.gif
108.02.06 19:44 B D:\ian\v2beta\admin\FCKeditor\editor\dialog\fck_about\Thumbs.db <-- Ipswitch /public_html/v2beta/admin/FCKeditor/editor/dialog/fck_about Thumbs.db
2009.01.19 20:42 B E:\Prima Daya mandiri -2\primadayamandiri\control\FCKeditor\editor\dialog\fck_about\index.php --> primadayamandiri.com /public_html/control/FCKeditor/editor/dialog/fck_about index.php
2009.01.19 20:42 B E:\Prima Daya mandiri -2\primadayamandiri\control\FCKeditor\editor\dialog\fck_about\lgpl.html --> primadayamandiri.com /public_html/control/FCKeditor/editor/dialog/fck_about lgpl.html
2009.01.19 20:42 B E:\Prima Daya mandiri -2\primadayamandiri\control\FCKeditor\editor\dialog\fck_about\logo_fckeditor.gif --> primadayamandiri.com /public_html/control/FCKeditor/editor/dialog/fck_about logo_fckeditor.gif
2009.01.19 20:42 B E:\Prima Daya mandiri -2\primadayamandiri\control\FCKeditor\editor\dialog\fck_about\logo_fredck.gif --> primadayamandiri.com /public_html/control/FCKeditor/editor/dialog/fck_about logo_fredck.gif
2009.01.19 20:42 B E:\Prima Daya mandiri -2\primadayamandiri\control\FCKeditor\editor\dialog\fck_about\Thumbs.db --> primadayamandiri.com /public_html/control/FCKeditor/editor/dialog/fck_about Thumbs.db
2009.01.19 20:42 B E:\Prima Daya mandiri -2\primadayamandiri\control\FCKeditor\editor\dialog\fck_about\WS_FTP.LOG --> primadayamandiri.com /public_html/control/FCKeditor/editor/dialog/fck_about WS_FTP.LOG
