108.02.06 19:46 B D:\ian\v2beta\admin\FCKeditor\editor\filemanager\browser\default\connectors\php\basexml.php <-- Ipswitch /public_html/v2beta/admin/FCKeditor/editor/filemanager/browser/default/connectors/php basexml.php
108.02.06 19:46 B D:\ian\v2beta\admin\FCKeditor\editor\filemanager\browser\default\connectors\php\commands.php <-- Ipswitch /public_html/v2beta/admin/FCKeditor/editor/filemanager/browser/default/connectors/php commands.php
108.02.06 19:46 B D:\ian\v2beta\admin\FCKeditor\editor\filemanager\browser\default\connectors\php\config.php <-- Ipswitch /public_html/v2beta/admin/FCKeditor/editor/filemanager/browser/default/connectors/php config.php
108.02.06 19:46 B D:\ian\v2beta\admin\FCKeditor\editor\filemanager\browser\default\connectors\php\connector.php <-- Ipswitch /public_html/v2beta/admin/FCKeditor/editor/filemanager/browser/default/connectors/php connector.php
108.02.06 19:46 B D:\ian\v2beta\admin\FCKeditor\editor\filemanager\browser\default\connectors\php\io.php <-- Ipswitch /public_html/v2beta/admin/FCKeditor/editor/filemanager/browser/default/connectors/php io.php
108.02.06 19:46 B D:\ian\v2beta\admin\FCKeditor\editor\filemanager\browser\default\connectors\php\util.php <-- Ipswitch /public_html/v2beta/admin/FCKeditor/editor/filemanager/browser/default/connectors/php util.php
2009.01.19 20:53 B E:\Prima Daya mandiri -2\primadayamandiri\control\FCKeditor\editor\filemanager\browser\default\connectors\php\basexml.php --> primadayamandiri.com /public_html/control/FCKeditor/editor/filemanager/browser/default/connectors/php basexml.php
2009.01.19 20:53 B E:\Prima Daya mandiri -2\primadayamandiri\control\FCKeditor\editor\filemanager\browser\default\connectors\php\commands.php --> primadayamandiri.com /public_html/control/FCKeditor/editor/filemanager/browser/default/connectors/php commands.php
2009.01.19 20:53 B E:\Prima Daya mandiri -2\primadayamandiri\control\FCKeditor\editor\filemanager\browser\default\connectors\php\config.php --> primadayamandiri.com /public_html/control/FCKeditor/editor/filemanager/browser/default/connectors/php config.php
2009.01.19 20:53 B E:\Prima Daya mandiri -2\primadayamandiri\control\FCKeditor\editor\filemanager\browser\default\connectors\php\connector.php --> primadayamandiri.com /public_html/control/FCKeditor/editor/filemanager/browser/default/connectors/php connector.php
2009.01.19 20:53 B E:\Prima Daya mandiri -2\primadayamandiri\control\FCKeditor\editor\filemanager\browser\default\connectors\php\io.php --> primadayamandiri.com /public_html/control/FCKeditor/editor/filemanager/browser/default/connectors/php io.php
2009.01.19 20:53 B E:\Prima Daya mandiri -2\primadayamandiri\control\FCKeditor\editor\filemanager\browser\default\connectors\php\util.php --> primadayamandiri.com /public_html/control/FCKeditor/editor/filemanager/browser/default/connectors/php util.php
2009.01.19 20:53 B E:\Prima Daya mandiri -2\primadayamandiri\control\FCKeditor\editor\filemanager\browser\default\connectors\php\WS_FTP.LOG --> primadayamandiri.com /public_html/control/FCKeditor/editor/filemanager/browser/default/connectors/php WS_FTP.LOG
