108.02.06 19:51 B D:\ian\v2beta\admin\FCKeditor\editor\plugins\index.php <-- Ipswitch /public_html/v2beta/admin/FCKeditor/editor/plugins index.php
2009.01.19 21:04 B E:\Prima Daya mandiri -2\primadayamandiri\control\FCKeditor\editor\plugins\index.php --> primadayamandiri.com /public_html/control/FCKeditor/editor/plugins index.php
2009.01.19 21:04 B E:\Prima Daya mandiri -2\primadayamandiri\control\FCKeditor\editor\plugins\WS_FTP.LOG --> primadayamandiri.com /public_html/control/FCKeditor/editor/plugins WS_FTP.LOG
