108.02.06 19:46 B D:\ian\v2beta\admin\FCKeditor\editor\filemanager\browser\default\connectors\lasso\config.lasso <-- Ipswitch /public_html/v2beta/admin/FCKeditor/editor/filemanager/browser/default/connectors/lasso config.lasso
108.02.06 19:46 B D:\ian\v2beta\admin\FCKeditor\editor\filemanager\browser\default\connectors\lasso\connector.lasso <-- Ipswitch /public_html/v2beta/admin/FCKeditor/editor/filemanager/browser/default/connectors/lasso connector.lasso
2009.01.19 20:52 B E:\Prima Daya mandiri -2\primadayamandiri\control\FCKeditor\editor\filemanager\browser\default\connectors\lasso\config.lasso --> primadayamandiri.com /public_html/control/FCKeditor/editor/filemanager/browser/default/connectors/lasso config.lasso
2009.01.19 20:52 B E:\Prima Daya mandiri -2\primadayamandiri\control\FCKeditor\editor\filemanager\browser\default\connectors\lasso\connector.lasso --> primadayamandiri.com /public_html/control/FCKeditor/editor/filemanager/browser/default/connectors/lasso connector.lasso
2009.01.19 20:52 B E:\Prima Daya mandiri -2\primadayamandiri\control\FCKeditor\editor\filemanager\browser\default\connectors\lasso\WS_FTP.LOG --> primadayamandiri.com /public_html/control/FCKeditor/editor/filemanager/browser/default/connectors/lasso WS_FTP.LOG
