108.02.06 19:51 B D:\ian\v2beta\admin\FCKeditor\editor\skins\silver\images\index.php <-- Ipswitch /public_html/v2beta/admin/FCKeditor/editor/skins/silver/images index.php
108.02.06 19:51 B D:\ian\v2beta\admin\FCKeditor\editor\skins\silver\images\Thumbs.db <-- Ipswitch /public_html/v2beta/admin/FCKeditor/editor/skins/silver/images Thumbs.db
108.02.06 19:52 B D:\ian\v2beta\admin\FCKeditor\editor\skins\silver\images\toolbar.arrowright.gif <-- Ipswitch /public_html/v2beta/admin/FCKeditor/editor/skins/silver/images toolbar.arrowright.gif
108.02.06 19:52 B D:\ian\v2beta\admin\FCKeditor\editor\skins\silver\images\toolbar.buttonarrow.gif <-- Ipswitch /public_html/v2beta/admin/FCKeditor/editor/skins/silver/images toolbar.buttonarrow.gif
108.02.06 19:52 B D:\ian\v2beta\admin\FCKeditor\editor\skins\silver\images\toolbar.buttonbg.gif <-- Ipswitch /public_html/v2beta/admin/FCKeditor/editor/skins/silver/images toolbar.buttonbg.gif
108.02.06 19:52 B D:\ian\v2beta\admin\FCKeditor\editor\skins\silver\images\toolbar.collapse.gif <-- Ipswitch /public_html/v2beta/admin/FCKeditor/editor/skins/silver/images toolbar.collapse.gif
108.02.06 19:52 B D:\ian\v2beta\admin\FCKeditor\editor\skins\silver\images\toolbar.end.gif <-- Ipswitch /public_html/v2beta/admin/FCKeditor/editor/skins/silver/images toolbar.end.gif
108.02.06 19:52 B D:\ian\v2beta\admin\FCKeditor\editor\skins\silver\images\toolbar.expand.gif <-- Ipswitch /public_html/v2beta/admin/FCKeditor/editor/skins/silver/images toolbar.expand.gif
108.02.06 19:52 B D:\ian\v2beta\admin\FCKeditor\editor\skins\silver\images\toolbar.separator.gif <-- Ipswitch /public_html/v2beta/admin/FCKeditor/editor/skins/silver/images toolbar.separator.gif
108.02.06 19:52 B D:\ian\v2beta\admin\FCKeditor\editor\skins\silver\images\toolbar.start.gif <-- Ipswitch /public_html/v2beta/admin/FCKeditor/editor/skins/silver/images toolbar.start.gif
2009.01.19 21:05 B E:\Prima Daya mandiri -2\primadayamandiri\control\FCKeditor\editor\skins\silver\images\index.php --> primadayamandiri.com /public_html/control/FCKeditor/editor/skins/silver/images index.php
2009.01.19 21:05 B E:\Prima Daya mandiri -2\primadayamandiri\control\FCKeditor\editor\skins\silver\images\Thumbs.db --> primadayamandiri.com /public_html/control/FCKeditor/editor/skins/silver/images Thumbs.db
2009.01.19 21:05 B E:\Prima Daya mandiri -2\primadayamandiri\control\FCKeditor\editor\skins\silver\images\toolbar.arrowright.gif --> primadayamandiri.com /public_html/control/FCKeditor/editor/skins/silver/images toolbar.arrowright.gif
2009.01.19 21:05 B E:\Prima Daya mandiri -2\primadayamandiri\control\FCKeditor\editor\skins\silver\images\toolbar.buttonarrow.gif --> primadayamandiri.com /public_html/control/FCKeditor/editor/skins/silver/images toolbar.buttonarrow.gif
2009.01.19 21:05 B E:\Prima Daya mandiri -2\primadayamandiri\control\FCKeditor\editor\skins\silver\images\toolbar.buttonbg.gif --> primadayamandiri.com /public_html/control/FCKeditor/editor/skins/silver/images toolbar.buttonbg.gif
2009.01.19 21:05 B E:\Prima Daya mandiri -2\primadayamandiri\control\FCKeditor\editor\skins\silver\images\toolbar.collapse.gif --> primadayamandiri.com /public_html/control/FCKeditor/editor/skins/silver/images toolbar.collapse.gif
2009.01.19 21:05 B E:\Prima Daya mandiri -2\primadayamandiri\control\FCKeditor\editor\skins\silver\images\toolbar.end.gif --> primadayamandiri.com /public_html/control/FCKeditor/editor/skins/silver/images toolbar.end.gif
2009.01.19 21:05 B E:\Prima Daya mandiri -2\primadayamandiri\control\FCKeditor\editor\skins\silver\images\toolbar.expand.gif --> primadayamandiri.com /public_html/control/FCKeditor/editor/skins/silver/images toolbar.expand.gif
2009.01.19 21:05 B E:\Prima Daya mandiri -2\primadayamandiri\control\FCKeditor\editor\skins\silver\images\toolbar.separator.gif --> primadayamandiri.com /public_html/control/FCKeditor/editor/skins/silver/images toolbar.separator.gif
2009.01.19 21:05 B E:\Prima Daya mandiri -2\primadayamandiri\control\FCKeditor\editor\skins\silver\images\toolbar.start.gif --> primadayamandiri.com /public_html/control/FCKeditor/editor/skins/silver/images toolbar.start.gif
2009.01.19 21:05 B E:\Prima Daya mandiri -2\primadayamandiri\control\FCKeditor\editor\skins\silver\images\WS_FTP.LOG --> primadayamandiri.com /public_html/control/FCKeditor/editor/skins/silver/images WS_FTP.LOG
