108.02.06 19:44 B D:\ian\v2beta\admin\FCKeditor\editor\css\behaviors\disablehandles.htc <-- Ipswitch /public_html/v2beta/admin/FCKeditor/editor/css/behaviors disablehandles.htc
108.02.06 19:44 B D:\ian\v2beta\admin\FCKeditor\editor\css\behaviors\hiddenfield.gif <-- Ipswitch /public_html/v2beta/admin/FCKeditor/editor/css/behaviors hiddenfield.gif
108.02.06 19:44 B D:\ian\v2beta\admin\FCKeditor\editor\css\behaviors\hiddenfield.htc <-- Ipswitch /public_html/v2beta/admin/FCKeditor/editor/css/behaviors hiddenfield.htc
108.02.06 19:44 B D:\ian\v2beta\admin\FCKeditor\editor\css\behaviors\index.php <-- Ipswitch /public_html/v2beta/admin/FCKeditor/editor/css/behaviors index.php
108.02.06 19:44 B D:\ian\v2beta\admin\FCKeditor\editor\css\behaviors\showtableborders.htc <-- Ipswitch /public_html/v2beta/admin/FCKeditor/editor/css/behaviors showtableborders.htc
2009.01.19 20:41 B E:\Prima Daya mandiri -2\primadayamandiri\control\FCKeditor\editor\css\behaviors\disablehandles.htc --> primadayamandiri.com /public_html/control/FCKeditor/editor/css/behaviors disablehandles.htc
2009.01.19 20:41 B E:\Prima Daya mandiri -2\primadayamandiri\control\FCKeditor\editor\css\behaviors\hiddenfield.gif --> primadayamandiri.com /public_html/control/FCKeditor/editor/css/behaviors hiddenfield.gif
2009.01.19 20:41 B E:\Prima Daya mandiri -2\primadayamandiri\control\FCKeditor\editor\css\behaviors\hiddenfield.htc --> primadayamandiri.com /public_html/control/FCKeditor/editor/css/behaviors hiddenfield.htc
2009.01.19 20:41 B E:\Prima Daya mandiri -2\primadayamandiri\control\FCKeditor\editor\css\behaviors\index.php --> primadayamandiri.com /public_html/control/FCKeditor/editor/css/behaviors index.php
2009.01.19 20:41 B E:\Prima Daya mandiri -2\primadayamandiri\control\FCKeditor\editor\css\behaviors\showtableborders.htc --> primadayamandiri.com /public_html/control/FCKeditor/editor/css/behaviors showtableborders.htc
2009.01.19 20:41 B E:\Prima Daya mandiri -2\primadayamandiri\control\FCKeditor\editor\css\behaviors\Thumbs.db --> primadayamandiri.com /public_html/control/FCKeditor/editor/css/behaviors Thumbs.db
2009.01.19 20:41 B E:\Prima Daya mandiri -2\primadayamandiri\control\FCKeditor\editor\css\behaviors\WS_FTP.LOG --> primadayamandiri.com /public_html/control/FCKeditor/editor/css/behaviors WS_FTP.LOG
