108.02.06 19:52 B D:\ian\v2beta\admin\FCKeditor\editor\skins\_fckviewstrips.html <-- Ipswitch /public_html/v2beta/admin/FCKeditor/editor/skins _fckviewstrips.html
108.02.06 19:52 B D:\ian\v2beta\admin\FCKeditor\editor\skins\index.php <-- Ipswitch /public_html/v2beta/admin/FCKeditor/editor/skins index.php
2009.01.19 21:06 B E:\Prima Daya mandiri -2\primadayamandiri\control\FCKeditor\editor\skins\_fckviewstrips.html --> primadayamandiri.com /public_html/control/FCKeditor/editor/skins _fckviewstrips.html
2009.01.19 21:06 B E:\Prima Daya mandiri -2\primadayamandiri\control\FCKeditor\editor\skins\index.php --> primadayamandiri.com /public_html/control/FCKeditor/editor/skins index.php
2009.01.19 21:06 B E:\Prima Daya mandiri -2\primadayamandiri\control\FCKeditor\editor\skins\WS_FTP.LOG --> primadayamandiri.com /public_html/control/FCKeditor/editor/skins WS_FTP.LOG
