108.02.06 19:45 B D:\ian\v2beta\admin\FCKeditor\editor\dialog\fck_template\images\index.php <-- Ipswitch /public_html/v2beta/admin/FCKeditor/editor/dialog/fck_template/images index.php
108.02.06 19:45 B D:\ian\v2beta\admin\FCKeditor\editor\dialog\fck_template\images\template1.gif <-- Ipswitch /public_html/v2beta/admin/FCKeditor/editor/dialog/fck_template/images template1.gif
108.02.06 19:45 B D:\ian\v2beta\admin\FCKeditor\editor\dialog\fck_template\images\template2.gif <-- Ipswitch /public_html/v2beta/admin/FCKeditor/editor/dialog/fck_template/images template2.gif
108.02.06 19:45 B D:\ian\v2beta\admin\FCKeditor\editor\dialog\fck_template\images\template3.gif <-- Ipswitch /public_html/v2beta/admin/FCKeditor/editor/dialog/fck_template/images template3.gif
108.02.06 19:45 B D:\ian\v2beta\admin\FCKeditor\editor\dialog\fck_template\images\Thumbs.db <-- Ipswitch /public_html/v2beta/admin/FCKeditor/editor/dialog/fck_template/images Thumbs.db
2009.01.19 20:43 B E:\Prima Daya mandiri -2\primadayamandiri\control\FCKeditor\editor\dialog\fck_template\images\index.php --> primadayamandiri.com /public_html/control/FCKeditor/editor/dialog/fck_template/images index.php
2009.01.19 20:43 B E:\Prima Daya mandiri -2\primadayamandiri\control\FCKeditor\editor\dialog\fck_template\images\template1.gif --> primadayamandiri.com /public_html/control/FCKeditor/editor/dialog/fck_template/images template1.gif
2009.01.19 20:43 B E:\Prima Daya mandiri -2\primadayamandiri\control\FCKeditor\editor\dialog\fck_template\images\template2.gif --> primadayamandiri.com /public_html/control/FCKeditor/editor/dialog/fck_template/images template2.gif
2009.01.19 20:43 B E:\Prima Daya mandiri -2\primadayamandiri\control\FCKeditor\editor\dialog\fck_template\images\template3.gif --> primadayamandiri.com /public_html/control/FCKeditor/editor/dialog/fck_template/images template3.gif
2009.01.19 20:44 B E:\Prima Daya mandiri -2\primadayamandiri\control\FCKeditor\editor\dialog\fck_template\images\Thumbs.db --> primadayamandiri.com /public_html/control/FCKeditor/editor/dialog/fck_template/images Thumbs.db
2009.01.19 20:44 B E:\Prima Daya mandiri -2\primadayamandiri\control\FCKeditor\editor\dialog\fck_template\images\WS_FTP.LOG --> primadayamandiri.com /public_html/control/FCKeditor/editor/dialog/fck_template/images WS_FTP.LOG
