108.02.06 19:51 B D:\ian\v2beta\admin\FCKeditor\editor\plugins\placeholder\fck_placeholder.html <-- Ipswitch /public_html/v2beta/admin/FCKeditor/editor/plugins/placeholder fck_placeholder.html
108.02.06 19:51 B D:\ian\v2beta\admin\FCKeditor\editor\plugins\placeholder\fckplugin.js <-- Ipswitch /public_html/v2beta/admin/FCKeditor/editor/plugins/placeholder fckplugin.js
108.02.06 19:51 B D:\ian\v2beta\admin\FCKeditor\editor\plugins\placeholder\index.php <-- Ipswitch /public_html/v2beta/admin/FCKeditor/editor/plugins/placeholder index.php
108.02.06 19:51 B D:\ian\v2beta\admin\FCKeditor\editor\plugins\placeholder\placeholder.gif <-- Ipswitch /public_html/v2beta/admin/FCKeditor/editor/plugins/placeholder placeholder.gif
2009.01.19 21:03 B E:\Prima Daya mandiri -2\primadayamandiri\control\FCKeditor\editor\plugins\placeholder\fck_placeholder.html --> primadayamandiri.com /public_html/control/FCKeditor/editor/plugins/placeholder fck_placeholder.html
2009.01.19 21:03 B E:\Prima Daya mandiri -2\primadayamandiri\control\FCKeditor\editor\plugins\placeholder\fckplugin.js --> primadayamandiri.com /public_html/control/FCKeditor/editor/plugins/placeholder fckplugin.js
2009.01.19 21:03 B E:\Prima Daya mandiri -2\primadayamandiri\control\FCKeditor\editor\plugins\placeholder\index.php --> primadayamandiri.com /public_html/control/FCKeditor/editor/plugins/placeholder index.php
2009.01.19 21:03 B E:\Prima Daya mandiri -2\primadayamandiri\control\FCKeditor\editor\plugins\placeholder\placeholder.gif --> primadayamandiri.com /public_html/control/FCKeditor/editor/plugins/placeholder placeholder.gif
2009.01.19 21:03 B E:\Prima Daya mandiri -2\primadayamandiri\control\FCKeditor\editor\plugins\placeholder\WS_FTP.LOG --> primadayamandiri.com /public_html/control/FCKeditor/editor/plugins/placeholder WS_FTP.LOG
