108.02.06 19:44 B D:\ian\v2beta\admin\FCKeditor\editor\dialog\common\images\index.php <-- Ipswitch /public_html/v2beta/admin/FCKeditor/editor/dialog/common/images index.php
108.02.06 19:44 B D:\ian\v2beta\admin\FCKeditor\editor\dialog\common\images\locked.gif <-- Ipswitch /public_html/v2beta/admin/FCKeditor/editor/dialog/common/images locked.gif
108.02.06 19:44 B D:\ian\v2beta\admin\FCKeditor\editor\dialog\common\images\reset.gif <-- Ipswitch /public_html/v2beta/admin/FCKeditor/editor/dialog/common/images reset.gif
108.02.06 19:44 B D:\ian\v2beta\admin\FCKeditor\editor\dialog\common\images\Thumbs.db <-- Ipswitch /public_html/v2beta/admin/FCKeditor/editor/dialog/common/images Thumbs.db
108.02.06 19:44 B D:\ian\v2beta\admin\FCKeditor\editor\dialog\common\images\unlocked.gif <-- Ipswitch /public_html/v2beta/admin/FCKeditor/editor/dialog/common/images unlocked.gif
2009.01.19 20:42 B E:\Prima Daya mandiri -2\primadayamandiri\control\FCKeditor\editor\dialog\common\images\index.php --> primadayamandiri.com /public_html/control/FCKeditor/editor/dialog/common/images index.php
2009.01.19 20:42 B E:\Prima Daya mandiri -2\primadayamandiri\control\FCKeditor\editor\dialog\common\images\locked.gif --> primadayamandiri.com /public_html/control/FCKeditor/editor/dialog/common/images locked.gif
2009.01.19 20:42 B E:\Prima Daya mandiri -2\primadayamandiri\control\FCKeditor\editor\dialog\common\images\reset.gif --> primadayamandiri.com /public_html/control/FCKeditor/editor/dialog/common/images reset.gif
2009.01.19 20:42 B E:\Prima Daya mandiri -2\primadayamandiri\control\FCKeditor\editor\dialog\common\images\Thumbs.db --> primadayamandiri.com /public_html/control/FCKeditor/editor/dialog/common/images Thumbs.db
2009.01.19 20:42 B E:\Prima Daya mandiri -2\primadayamandiri\control\FCKeditor\editor\dialog\common\images\unlocked.gif --> primadayamandiri.com /public_html/control/FCKeditor/editor/dialog/common/images unlocked.gif
2009.01.19 20:42 B E:\Prima Daya mandiri -2\primadayamandiri\control\FCKeditor\editor\dialog\common\images\WS_FTP.LOG --> primadayamandiri.com /public_html/control/FCKeditor/editor/dialog/common/images WS_FTP.LOG
