108.02.06 19:44 B D:\ian\v2beta\admin\FCKeditor\editor\css\images\fck_anchor.gif <-- Ipswitch /public_html/v2beta/admin/FCKeditor/editor/css/images fck_anchor.gif
108.02.06 19:44 B D:\ian\v2beta\admin\FCKeditor\editor\css\images\fck_flashlogo.gif <-- Ipswitch /public_html/v2beta/admin/FCKeditor/editor/css/images fck_flashlogo.gif
108.02.06 19:44 B D:\ian\v2beta\admin\FCKeditor\editor\css\images\fck_pagebreak.gif <-- Ipswitch /public_html/v2beta/admin/FCKeditor/editor/css/images fck_pagebreak.gif
108.02.06 19:44 B D:\ian\v2beta\admin\FCKeditor\editor\css\images\index.php <-- Ipswitch /public_html/v2beta/admin/FCKeditor/editor/css/images index.php
108.02.06 19:44 B D:\ian\v2beta\admin\FCKeditor\editor\css\images\Thumbs.db <-- Ipswitch /public_html/v2beta/admin/FCKeditor/editor/css/images Thumbs.db
2009.01.19 20:41 B E:\Prima Daya mandiri -2\primadayamandiri\control\FCKeditor\editor\css\images\fck_anchor.gif --> primadayamandiri.com /public_html/control/FCKeditor/editor/css/images fck_anchor.gif
2009.01.19 20:41 B E:\Prima Daya mandiri -2\primadayamandiri\control\FCKeditor\editor\css\images\fck_flashlogo.gif --> primadayamandiri.com /public_html/control/FCKeditor/editor/css/images fck_flashlogo.gif
2009.01.19 20:41 B E:\Prima Daya mandiri -2\primadayamandiri\control\FCKeditor\editor\css\images\fck_pagebreak.gif --> primadayamandiri.com /public_html/control/FCKeditor/editor/css/images fck_pagebreak.gif
2009.01.19 20:41 B E:\Prima Daya mandiri -2\primadayamandiri\control\FCKeditor\editor\css\images\index.php --> primadayamandiri.com /public_html/control/FCKeditor/editor/css/images index.php
2009.01.19 20:41 B E:\Prima Daya mandiri -2\primadayamandiri\control\FCKeditor\editor\css\images\WS_FTP.LOG --> primadayamandiri.com /public_html/control/FCKeditor/editor/css/images WS_FTP.LOG
