108.02.06 19:46 B D:\ian\v2beta\admin\FCKeditor\editor\filemanager\browser\default\connectors\perl\basexml.pl <-- Ipswitch /public_html/v2beta/admin/FCKeditor/editor/filemanager/browser/default/connectors/perl basexml.pl
108.02.06 19:46 B D:\ian\v2beta\admin\FCKeditor\editor\filemanager\browser\default\connectors\perl\commands.pl <-- Ipswitch /public_html/v2beta/admin/FCKeditor/editor/filemanager/browser/default/connectors/perl commands.pl
108.02.06 19:46 B D:\ian\v2beta\admin\FCKeditor\editor\filemanager\browser\default\connectors\perl\connector.cgi <-- Ipswitch /public_html/v2beta/admin/FCKeditor/editor/filemanager/browser/default/connectors/perl connector.cgi
108.02.06 19:46 B D:\ian\v2beta\admin\FCKeditor\editor\filemanager\browser\default\connectors\perl\io.pl <-- Ipswitch /public_html/v2beta/admin/FCKeditor/editor/filemanager/browser/default/connectors/perl io.pl
108.02.06 19:46 B D:\ian\v2beta\admin\FCKeditor\editor\filemanager\browser\default\connectors\perl\upload_fck.pl <-- Ipswitch /public_html/v2beta/admin/FCKeditor/editor/filemanager/browser/default/connectors/perl upload_fck.pl
108.02.06 19:46 B D:\ian\v2beta\admin\FCKeditor\editor\filemanager\browser\default\connectors\perl\util.pl <-- Ipswitch /public_html/v2beta/admin/FCKeditor/editor/filemanager/browser/default/connectors/perl util.pl
2009.01.19 20:52 B E:\Prima Daya mandiri -2\primadayamandiri\control\FCKeditor\editor\filemanager\browser\default\connectors\perl\basexml.pl --> primadayamandiri.com /public_html/control/FCKeditor/editor/filemanager/browser/default/connectors/perl basexml.pl
2009.01.19 20:52 B E:\Prima Daya mandiri -2\primadayamandiri\control\FCKeditor\editor\filemanager\browser\default\connectors\perl\commands.pl --> primadayamandiri.com /public_html/control/FCKeditor/editor/filemanager/browser/default/connectors/perl commands.pl
2009.01.19 20:52 B E:\Prima Daya mandiri -2\primadayamandiri\control\FCKeditor\editor\filemanager\browser\default\connectors\perl\connector.cgi --> primadayamandiri.com /public_html/control/FCKeditor/editor/filemanager/browser/default/connectors/perl connector.cgi
2009.01.19 20:52 B E:\Prima Daya mandiri -2\primadayamandiri\control\FCKeditor\editor\filemanager\browser\default\connectors\perl\io.pl --> primadayamandiri.com /public_html/control/FCKeditor/editor/filemanager/browser/default/connectors/perl io.pl
2009.01.19 20:52 B E:\Prima Daya mandiri -2\primadayamandiri\control\FCKeditor\editor\filemanager\browser\default\connectors\perl\upload_fck.pl --> primadayamandiri.com /public_html/control/FCKeditor/editor/filemanager/browser/default/connectors/perl upload_fck.pl
2009.01.19 20:52 B E:\Prima Daya mandiri -2\primadayamandiri\control\FCKeditor\editor\filemanager\browser\default\connectors\perl\util.pl --> primadayamandiri.com /public_html/control/FCKeditor/editor/filemanager/browser/default/connectors/perl util.pl
2009.01.19 20:52 B E:\Prima Daya mandiri -2\primadayamandiri\control\FCKeditor\editor\filemanager\browser\default\connectors\perl\WS_FTP.LOG --> primadayamandiri.com /public_html/control/FCKeditor/editor/filemanager/browser/default/connectors/perl WS_FTP.LOG
